{
  "NODE_ENV": "development",
  "server": {
    "host": "127.0.0.1",
    "port": "3000"
  },
  "logs": {
    "base-path": "logs/",
    "info": {
      "path": "logs/info.log"
    },
    "error": {
      "path": "logs/errors.log"
    }
  },
  "assets": {
    "public-root": "public"
  }
}